{
    "Table": {
        "TableName": "serverless-payments-dev-transactions",
        "KeySchema": [
            {
                "AttributeName": "transaction_id",
                "KeyType": "HASH"
            }
        ],
        "AttributeDefinitions": [
            {
                "AttributeName": "transaction_id",
                "AttributeType": "S"
            }
        ],
        "ProvisionedThroughput": {
            "ReadCapacityUnits": 10,
            "WriteCapacityUnits": 10
        }
    }
}
